{
	"useTabs": false,
	"printWidth": 80,
	"tabWidth": 2,
	"singleQuote": true,
	"trailingComma": "all",
	"jsxBracketSameLine": false,
	"parser": "flow",
	"semi": false,
	"arrowParens": "always"
}
