<svg width="25" height="25" viewBox="0 0 25 25" fill="none" xmlns="http://www.w3.org/2000/svg">
<path fill-rule="evenodd" clip-rule="evenodd" d="M7.35525 2.00377C7.93391 2.03188 8.49408 2.21655 8.976 2.53808L18.576 8.93808C19.0143 9.23031 19.3736 9.62622 19.6221 10.0907C19.8707 10.5551 20.0007 11.0737 20.0007 11.6005C20.0007 12.1272 19.8707 12.6459 19.6221 13.1103C19.3736 13.5747 19.0143 13.9706 18.576 14.2629L8.976 20.6629C8.49408 20.9844 7.93391 21.1691 7.35525 21.1972C6.7766 21.2253 6.20117 21.0958 5.69035 20.8225C5.17953 20.5492 4.7525 20.1423 4.4548 19.6453C4.1571 19.1483 3.99991 18.5798 4 18.0005V5.20048C3.99991 4.62114 4.1571 4.05265 4.4548 3.55565C4.7525 3.05865 5.17953 2.65179 5.69035 2.37848C6.20117 2.10517 6.7766 1.97566 7.35525 2.00377Z" fill="white"/>
</svg>
