<svg width="16" height="16" viewBox="0 0 16 16" fill="none" xmlns="http://www.w3.org/2000/svg">
<path d="M1.59961 8.39998C1.59961 8.24239 1.63065 8.08635 1.69095 7.94076C1.75126 7.79517 1.83965 7.66288 1.95108 7.55145C2.06251 7.44002 2.1948 7.35163 2.34039 7.29132C2.48598 7.23101 2.64202 7.19998 2.79961 7.19998C2.9572 7.19998 3.11324 7.23101 3.25883 7.29132C3.40442 7.35163 3.53671 7.44002 3.64814 7.55145C3.75957 7.66288 3.84796 7.79517 3.90827 7.94076C3.96857 8.08635 3.99961 8.24239 3.99961 8.39998V13.2C3.99961 13.5182 3.87318 13.8235 3.64814 14.0485C3.42309 14.2735 3.11787 14.4 2.79961 14.4C2.48135 14.4 2.17612 14.2735 1.95108 14.0485C1.72604 13.8235 1.59961 13.5182 1.59961 13.2V8.39998ZM4.79961 8.26638V12.6104C4.79947 12.9077 4.88219 13.1992 5.03847 13.4521C5.19476 13.7051 5.41844 13.9095 5.68441 14.0424L5.72441 14.0624C6.16832 14.2842 6.65775 14.3998 7.15401 14.4H11.4868C11.8568 14.4001 12.2155 14.272 12.5017 14.0375C12.7878 13.8029 12.9839 13.4764 13.0564 13.1136L14.0164 8.31358C14.0628 8.08147 14.0571 7.84197 13.9998 7.61233C13.9424 7.38269 13.8348 7.16863 13.6848 6.98558C13.5347 6.80254 13.3459 6.65507 13.132 6.5538C12.918 6.45254 12.6843 6.4 12.4476 6.39998H9.59961V3.19998C9.59961 2.77563 9.43104 2.36866 9.13098 2.0686C8.83092 1.76855 8.42396 1.59998 7.99961 1.59998C7.78744 1.59998 7.58395 1.68426 7.43392 1.83429C7.2839 1.98432 7.19961 2.1878 7.19961 2.39998V2.93358C7.19961 3.62596 6.97504 4.29967 6.55961 4.85358L5.43961 6.34638C5.02418 6.90028 4.79961 7.57399 4.79961 8.26638Z" fill="#1F1F1F"/>
</svg>
